{
	"name":				"CHIME-West",
	"description":		"",
	"pdu_hostname": 	"10.10.2.22",
	"fans_hostname": 	"10.10.2.21",
	"gpu_machines":	[
		{ "hostname": "chi01", "power_socket": 1 },
		{ "hostname": "chi02", "power_socket": 2 },
		{ "hostname": "chi03", "power_socket": 3 },
		{ "hostname": "chi04", "power_socket": 4 },
		{ "hostname": "chi05", "power_socket": 10 },
		{ "hostname": "chi06", "power_socket": 11 },
		{ "hostname": "chi07", "power_socket": 12 },	
		{ "hostname": "chi08", "power_socket": 17 },
		{ "hostname": "chi09", "power_socket": 18 },
		{ "hostname": "chi10", "power_socket": 22 }
	],
	"off_machines": [
	]
}
